9/9/2019 4:22:03 PM Log :Application Started.....
9/9/2019 4:27:00 PM Log :Application Started.....
9/9/2019 4:29:30 PM Log :Notification  delivered to :  Response: {"multicast_id":5953452189339407138,"success":1,"failure":0,"canonical_ids":0,"results":[{"message_id":"0:1568026772693554%c16be2ecf9fd7ecd"}]}
