7/26/2019 5:39:45 PM Log :Application Started.....
7/26/2019 5:41:14 PM Log :Application Started.....
7/26/2019 5:45:33 PM Log :Application Started.....
7/26/2019 5:48:29 PM Log :Notification not delivered : 8520915667,9290509976 Response: {"multicast_id":8229378146498806451,"success":0,"failure":1,"canonical_ids":0,"results":[{"error":"NotRegistered"}]}
7/26/2019 5:54:01 PM Log :Application Started.....
7/26/2019 5:54:33 PM Log :Notification  delivered to : 8520915667,9290509976 Response: {"multicast_id":7321134222983519249,"success":1,"failure":0,"canonical_ids":0,"results":[{"message_id":"0:1564143866497917%c16be2ecf9fd7ecd"}]}
