7/19/2019 8:04:32 PM Log :Application Started.....
7/19/2019 8:06:56 PM Log :Application Started.....
7/19/2019 8:39:09 PM Log :Application Started.....
7/19/2019 8:57:00 PM Log :Application Started.....
